<svg xmlns="http://www.w3.org/2000/svg" xmlns:xlink="http://www.w3.org/1999/xlink" width="27" height="30"
	 viewBox="0 0 27 30">
	<defs>
		<path id="a" d="M0 30h26.563V0H0z"/>
	</defs>
	<g fill="none" fill-rule="evenodd">
		<mask id="b" fill="#fff">
			<use xlink:href="#a"/>
		</mask>
		<path fill="#EB9C00"
			  d="M23.75 5.625c.717 0 .998.287 1.24.781.242.495.323 1.204.323 1.719 0 1.435-1.012 2.786-2.452 4.111-.968.892-2.088 1.746-3.125 2.608.349-1.909.717-3.68 1.055-5.615.375-.145.69-.383.928-.655.39-.445.622-.97.84-1.445.28-.655.566-1.508 1.191-1.504zm-20.938 0c.71.135.937.947 1.192 1.504.218.475.45 1 .84 1.445.294.336.712.623 1.21.743.287 1.914.575 3.686.86 5.595-1.06-.886-2.218-1.76-3.213-2.676C2.261 10.911 1.25 9.56 1.25 8.125c0-.515.08-1.224.322-1.719.242-.494.523-.781 1.24-.781zm8.75-4.062c0 .534.275.997.684 1.279-.574.036-1.17.104-1.7.215-.752.156-1.39.364-1.738 1.006h-.683c-1.05.008-2.478.572-2.5 1.562.001.11.032.218.088.313-.088.308-.088 1.245.127 1.855-.31-.365-.536-.82-.703-1.182-.45-1.06-1.074-2.24-2.324-2.236-1.158 0-1.971.702-2.354 1.484C.076 6.642 0 7.497 0 8.125c0 2.003 1.332 3.62 2.861 5.03 1.455 1.339 3.144 2.538 4.326 3.671.103.737.21 1.493.313 2.315.06.476.384.726.664.908.915.326 1.838 1.07 2.783 1.201l.928 1.153v1.132l-.928 1.153c-.474-.047-.892.018-1.27.254-.238.206-.37.466-.497.722-.705.223-1.157.816-1.446 1.407-.346.718-.546 1.556-.546 2.304a.65.65 0 0 0 .625.625h11.25a.65.65 0 0 0 .625-.625c0-.762-.225-1.607-.596-2.324-.337-.633-.778-1.117-1.387-1.367-.11-.295-.317-.539-.508-.742-.42-.308-.749-.254-1.27-.254L15 23.535v-1.132l.928-1.153c.902-.26 1.836-.703 2.549-1.23.251-.189.532-.45.585-.879.105-.833.224-1.599.342-2.344 1.181-1.125 2.855-2.314 4.297-3.643 1.53-1.409 2.861-3.026 2.861-5.029 0-.628-.075-1.483-.459-2.266-.382-.782-1.195-1.484-2.353-1.484-1.25-.004-1.852 1.203-2.324 2.236a8.719 8.719 0 0 1-.323.645c.077-.482.18-.883.06-1.309a.628.628 0 0 0 .087-.322c0-1.254-1.568-1.554-2.5-1.562h-1.308c-.316-.672-1.117-.876-1.73-1.006-.529-.112-1.127-.18-1.708-.215.41-.282.684-.745.684-1.28C14.688.7 13.988 0 13.124 0c-.938-.004-1.543.901-1.563 1.563z"
			  mask="url(#b)"/>
	</g>
</svg>
